id,name,model_id:id,group_id:id,perm_read,perm_write,perm_create,perm_unlink
access_reg_interfaces_vis,reg.interface,model_reg_interface,dc_inventario.operador,1,1,1,0
access_reg_modelos_vis,reg.modelo,model_reg_modelo,dc_inventario.operador,1,1,1,0
access_reg_marcas_vis,reg.marca,model_reg_marca,dc_inventario.operador,1,1,1,0
access_reg_servicios_vis,reg.servicio,model_reg_servicio,dc_inventario.operador,1,1,1,0
access_reg_estatus_vis,reg.estatus,model_reg_estatus,dc_inventario.operador,1,1,1,0
access_reg_sevidores_vis,reg.sevidores,model_reg_servidores,dc_inventario.operador,1,1,1,0
access_reg_servidores_v_vis,reg.servidores_v,model_reg_servidores_v,dc_inventario.operador,1,1,1,0
access_reg_vlan_vis,reg.vlan,model_reg_vlan,dc_inventario.operador,1,1,1,0
access_reg_swcith_vis,reg.swicth,model_reg_swicth,dc_inventario.operador,1,1,1,0
access_reg_router_vis,reg.router,model_reg_router,dc_inventario.operador,1,1,1,0
