id,name,model_id:id,group_id:id,perm_read,perm_write,perm_create,perm_unlink
access_fci_gh_eva_empleados_manager_geva,fci_gh.eva_empleados,model_fci_gh_eva_empleados,base.group_hr_manager,1,1,1,1
access_fci_gh_eva_empleados_line_manager_geva,fci_gh.eva_empleados.line,model_fci_gh_eva_empleados_line,base.group_hr_manager,1,1,1,1
access_fci_gh_eva_empleados_geva,fci_gh.eva_empleados,model_fci_gh_eva_empleados,fci_gh_configuracion.group_gh_eva,1,1,1,1
access_fci_gh_eva_empleados_line_geva,fci_gh.eva_empleados.line,model_fci_gh_eva_empleados_line,fci_gh_configuracion.group_gh_eva,1,1,1,1
access_fci_gh_eva_empleados_fecha_gave,fci_gh_configuracion.fci_gh.configfecha,fci_gh_configuracion.model_fci_gh_configfecha,fci_gh_configuracion.group_gh_eva,1,0,0,0
access_fci_gh_eva_empleados_rango_gave,fci_gh_configuracion.fci_gh.rangocualitativo,fci_gh_configuracion.model_fci_gh_rangocualitativo,fci_gh_configuracion.group_gh_eva,1,0,0,0
access_fci_gh_eva_empleados_tipo_cargo_hman,fci_gh_configuracion.fci_gh.con_cargo,fci_gh_configuracion.model_fci_gh_con_cargo,fci_gh_configuracion.group_gh_eva,1,1,1,0
access_fci_gh_eva_empleados_tipo_evaluacion_hman,fci_gh_configuracion.fci_gh.con_tipoevalucion,fci_gh_configuracion.model_fci_gh_con_tipoevalucion,fci_gh_configuracion.group_gh_eva,1,0,0,0
access_fci_gh_eva_empleados_competencia_hman,fci_gh_configuracion.fci_gh.con_competencia,fci_gh_configuracion.model_fci_gh_con_competencia,fci_gh_configuracion.group_gh_eva,1,0,0,0
access_fci_gh_eva_empleados_rango_Actuacion_hman,fci_gh_configuracion.fci_gh.rangoactuacion,fci_gh_configuracion.model_fci_gh_rangoactuacion,fci_gh_configuracion.group_gh_eva,1,0,0,0
access_hr_employee,fci_gh_configuracion.fci_hr_employee,fci_gh_configuracion.model_hr_employee,fci_gh_configuracion.group_gh_eva,1,0,0,0
access_hr_employee,fci_gh_configuracion.fci_hr_employee,fci_gh_configuracion.model_hr_employee,fci_gh_configuracion.group_ana,1,0,0,0
access_hr_employee,fci_gh_configuracion.fci_hr_employee,fci_gh_configuracion.model_hr_employee,base.group_hr_user,1,1,1,0
